<?xml version="1.0" encoding="UTF-8" standalone="no"?>
<svg
   xmlns:dc="http://purl.org/dc/elements/1.1/"
   xmlns:cc="http://creativecommons.org/ns#"
   xmlns:rdf="http://www.w3.org/1999/02/22-rdf-syntax-ns#"
   xmlns:svg="http://www.w3.org/2000/svg"
   xmlns="http://www.w3.org/2000/svg"
   xmlns:sodipodi="http://sodipodi.sourceforge.net/DTD/sodipodi-0.dtd"
   xmlns:inkscape="http://www.inkscape.org/namespaces/inkscape"
   enable-background="new 0 0 512 512"
   height="387.71432"
   id="Spell_x5F_Scroll"
   version="1.1"
   viewBox="0 0 399.27957 387.71432"
   width="399.27957"
   xml:space="preserve"
   sodipodi:docname="Scroll1.svg"
   inkscape:version="0.92.5 (2060ec1f9f, 2020-04-08)"><metadata
     id="metadata4339"><rdf:RDF><cc:Work
         rdf:about=""><dc:format>image/svg+xml</dc:format><dc:type
           rdf:resource="http://purl.org/dc/dcmitype/StillImage" /><dc:title></dc:title></cc:Work></rdf:RDF></metadata><defs
     id="defs4337" /><sodipodi:namedview
     pagecolor="#ffffff"
     bordercolor="#666666"
     borderopacity="1"
     objecttolerance="10"
     gridtolerance="10"
     guidetolerance="10"
     inkscape:pageopacity="0"
     inkscape:pageshadow="2"
     inkscape:window-width="1920"
     inkscape:window-height="1029"
     id="namedview4335"
     showgrid="false"
     inkscape:zoom="0.8203125"
     inkscape:cx="-257.66072"
     inkscape:cy="109.75835"
     inkscape:window-x="0"
     inkscape:window-y="26"
     inkscape:window-maximized="0"
     inkscape:current-layer="Spell_x5F_Scroll" /><linearGradient
     gradientUnits="userSpaceOnUse"
     id="SVGID_1_"
     x1="65.334503"
     x2="367.38611"
     y1="188.0972"
     y2="393.30801"
     gradientTransform="translate(-56.360426,-62.143854)"><stop
       offset="0.0103"
       style="stop-color:#FFDDCD"
       id="stop4280" /><stop
       offset="1"
       style="stop-color:#F79A80"
       id="stop4282" /></linearGradient><path
     d="m 0.36657424,97.140146 c 3.66899996,8.513004 9.07699996,23.904004 9.05299996,40.645004 -0.003,2.011 1.2919998,3.834 3.2579998,4.256 4.574,0.979 12.198,4.247 12.198,15.139 0,0 0,9.762 -8.884,13.65 -1.684,0.736 -2.75,2.422 -2.567,4.25 1.805,18.046 10.158,106.854 7.208,176.821 0,0 8.652,5.768 16.974,10.964 2.614,1.632 6.063,0.344 6.936,-2.611 1.631,-5.515 4.064,-14.063 5.793,-21.555 0,0 5.652,16.554 6.122,33.596 0.067,2.421 2.012,4.35 4.432,4.465 11.832,0.563 44.851996,-0.203 67.711996,-23.444 0,0 45.973,-36.775 90.408,-20.745 0,0 57.906,-106.02 8.031,-276.491004 0,0 -16.832,-0.229 -33.528,3.832 -2.428,0.591 -4.262,2.57 -4.603,5.045 -0.921,6.686 -3.036,20.308 -5.986,28.737 -0.559,1.599 -2.856,1.497 -3.31,-0.134 -1.31,-4.705 -3.392,-12.349 -5.303,-20.092 -0.825,-3.34 -4.181,-5.364 -7.5,-4.457 -8.589,2.348 -26.073,8.633 -51.411,24.99 0,0 -36.282996,23.009004 -75.413996,7.301004 -2.973,-1.193 -5.908,-2.412004 -8.949,-3.419004 -6.126,-2.027 -16.693,-5.262 -26.0049998,-6.807 -3.394,-0.564 -6.02799996,2.905 -4.66499996,6.064 z"
     id="path4285"
     inkscape:connector-curvature="0"
     style="fill:url(#SVGID_1_)" /><path
     d="m 219.00857,332.57015 c 0,0 57.906,-106.02 8.031,-276.491004 0,0 -8.926,-0.113 -20.213,1.386 5.65,32.104 25.88,167.167004 -12.577,271.068004 8.101,-0.108 16.456,1.041 24.759,4.037 z"
     id="path4287"
     inkscape:connector-curvature="0"
     style="fill:#f79a80" /><path
     d="m 66.354574,153.10015 v 0 c -2.714,0.44 -4.709,2.784 -4.709,5.534 v 26.482 c 0,3.097 2.51,5.606 5.606,5.606 h 1.991 c 3.262,0 5.835,-2.773 5.59,-6.026 l -1.991,-26.482 c -0.246,-3.276 -3.244,-5.639 -6.487,-5.114 z"
     id="path4289"
     inkscape:connector-curvature="0"
     style="fill:#e2526f" /><path
     d="m 90.668574,159.56815 v 19.769 c 0,2.857 3.204,4.544 5.559,2.927 l 9.334996,-6.409 c 2.674,-1.836 3.752,-5.258 2.613,-8.294 v 0 c -0.441,-1.177 -1.188,-2.214 -2.165,-3.005 l -9.557996,-7.745 c -2.32,-1.882 -5.784,-0.23 -5.784,2.757 z"
     id="path4291"
     inkscape:connector-curvature="0"
     style="fill:#e2526f" /><path
     d="m 113.88657,151.91715 v 1.385 c 0,2.474 1.85,4.556 4.306,4.848 v 0 c 2.904,0.346 5.458,-1.923 5.458,-4.848 v -1.385 c 0,-2.261 -1.553,-4.227 -3.752,-4.749 v 0 c -3.068,-0.73 -6.012,1.595 -6.012,4.749 z"
     id="path4293"
     inkscape:connector-curvature="0"
     style="fill:#e2526f" /><path
     d="m 150.61557,138.39615 v 0 c -1.661,0.747 -2.668,2.461 -2.515,4.274 l 1.601,18.892 c 0.508,5.995 7.2,9.377 12.28,6.154 1.259,-0.799 2.495,-1.635 3.631,-2.482 3.637,-2.714 4.265,-7.916 1.43,-11.46 l -11.317,-14.146 c -1.222,-1.529 -3.325,-2.036 -5.11,-1.232 z"
     id="path4295"
     inkscape:connector-curvature="0"
     style="fill:#e2526f" /><path
     d="m 169.54257,135.71715 6.105,8.546 c 1.474,2.063 4.665,1.583 5.467,-0.822 l 1.566,-4.696 c 0.353,-1.06 0.109,-2.227 -0.637,-3.057 l -4.928,-5.475 c -0.989,-1.099 -2.615,-1.348 -3.887,-0.594 l -2.743,1.626 c -1.563,0.926 -1.999,2.993 -0.943,4.472 z"
     id="path4297"
     inkscape:connector-curvature="0"
     style="fill:#e2526f" /><path
     d="m 216.29457,114.73615 -11.89,1.877 c -2.386,0.377 -3.996,2.621 -3.562,4.997 0.825,4.511 2.267,11.906 4.032,18.969 1.004,4.01 6.533,4.436 8.137,0.626 l 8.651,-20.558 c 1.192,-2.832 -0.888,-5.964 -3.961,-5.964 h -0.737 c -0.223,0 -0.448,0.018 -0.67,0.053 z"
     id="path4299"
     inkscape:connector-curvature="0"
     style="fill:#e2526f" /><path
     d="m 67.806574,265.84015 -0.396,3.459 c -0.322,2.811 1.212,5.506 3.794,6.663 v 0 c 2.458,1.102 5.34,0.571 7.245,-1.334 l 2.961,-2.961 c 1.904,-1.904 2.435,-4.787 1.333,-7.245 l -0.224,-0.498 c -1.046,-2.334 -3.366,-3.836 -5.923,-3.836 h -2.341 c -3.299,0 -6.073,2.475 -6.449,5.752 z"
     id="path4301"
     inkscape:connector-curvature="0"
     style="fill:#e2526f" /><path
     d="m 71.098574,298.67915 1.369,-7.87 c 0.288,-1.652 1.722,-2.859 3.4,-2.859 h 17.234 c 3.761,0 4.809,5.163 1.344,6.629 l -18.603,7.869 c -2.516,1.064 -5.212,-1.077 -4.744,-3.769 z"
     id="path4303"
     inkscape:connector-curvature="0"
     style="fill:#e2526f" /><path
     d="m 124.01557,248.85915 3.39,30.448 c 0.226,2.033 2.152,3.423 4.153,2.993 3.006,-0.646 7.14,-1.706 9.716,-3.076 1.203,-0.64 1.888,-1.94 1.787,-3.299 l -1.197,-16.049 c -0.073,-0.974 0.271,-1.933 0.945,-2.64 l 4.081,-4.275 c 0.613,-0.642 0.955,-1.495 0.955,-2.383 v -4.745 c 0,-2.117 -1.89,-3.735 -3.982,-3.409 l -16.948,2.644 c -1.827,0.284 -3.105,1.955 -2.9,3.791 z"
     id="path4305"
     inkscape:connector-curvature="0"
     style="fill:#e2526f" /><path
     d="m 160.00057,242.25615 0.723,4.427 c 0.446,2.735 3.772,3.854 5.782,1.945 v 0 c 0.686,-0.651 1.074,-1.556 1.074,-2.502 v -4.555 c 0,-2.148 -1.942,-3.775 -4.057,-3.397 l -0.723,0.129 c -1.856,0.332 -3.103,2.092 -2.799,3.953 z"
     id="path4307"
     inkscape:connector-curvature="0"
     style="fill:#e2526f" /><path
     d="m 181.95257,236.15115 -7.583,29.685 c -0.608,2.379 1.394,4.614 3.826,4.271 l 5.842,-0.826 c 1.38,-0.194 2.495,-1.188 2.849,-2.536 0.919,-3.493 3.604,-10.075 10.961,-11.591 1.372,-0.283 2.421,-1.406 2.646,-2.789 l 0.827,-5.048 c 0.204,-1.25 -0.293,-2.513 -1.296,-3.287 l -12.62,-9.754 c -1.963,-1.519 -4.838,-0.529 -5.452,1.875 z"
     id="path4309"
     inkscape:connector-curvature="0"
     style="fill:#e2526f" /><path
     d="m 233.86057,222.20315 -10.5,5.016 c -1.499,0.716 -2.275,2.397 -1.848,4.002 l 6.226,23.361 c 0.925,3.472 5.88,3.41 6.693,-0.089 2.087,-8.973 4.392,-20.804 4.378,-29.232 -0.005,-2.521 -2.675,-4.145 -4.949,-3.058 z"
     id="path4311"
     inkscape:connector-curvature="0"
     style="fill:#c7304d" /><path
     d="m 223.93857,136.30415 -2.621,7.16 c -0.436,1.189 0.588,2.4 1.833,2.171 l 5.358,-0.992 c 1.039,-0.192 1.626,-1.305 1.197,-2.271 l -2.736,-6.169 c -0.597,-1.344 -2.525,-1.28 -3.031,0.101 z"
     id="path4313"
     inkscape:connector-curvature="0"
     style="fill:#c7304d" /><path
     d="m 219.00857,44.794146 c 0,0 13.207,-17.457 43.699,-31.779 22.404,-10.5219996 47.383,-14.8399996 72.006,-12.30999958 11.794,1.21199998 23.377,3.97699998 29.225,9.82499958 0,0 -3.987,32.563 -17.943,79.082 -10e-4,0 -96.473,9.381 -126.987,-44.818 z"
     id="path4315"
     inkscape:connector-curvature="0"
     style="fill:#a34f46" /><path
     d="m 282.46857,45.116146 4.513,41.156 c 30.76,6.067 59.014,3.339 59.014,3.339 13.956,-46.519 17.943,-79.081 17.943,-79.081 0,0 -20.267,37.549 -81.47,34.586 z"
     id="path4317"
     inkscape:connector-curvature="0"
     style="fill:#f79a80" /><path
     d="m 399.27957,64.387146 c 0,0 -17.12,-17.622 -53.018,-19.271 l -8.394,45.116 c 10e-4,0 48.958,-1.071 61.412,-25.845 z"
     id="path4319"
     inkscape:connector-curvature="0"
     style="fill:#a34f46" /><path
     d="m 335.39957,35.341146 c -2.861,14.526 -9.439,35.787 -25.377,54.075 20.498,1.678 35.973,0.194 35.973,0.194 13.956,-46.519 17.943,-79.081 17.943,-79.081 0,0 -7.858,14.542 -28.539,24.812 z"
     id="path4321"
     inkscape:connector-curvature="0"
     style="fill:#ce735f" /><linearGradient
     gradientUnits="userSpaceOnUse"
     id="SVGID_2_"
     x1="286.22461"
     x2="562.91272"
     y1="204.0674"
     y2="468.45789"
     gradientTransform="translate(-56.360426,-62.143854)"><stop
       offset="0.0103"
       style="stop-color:#FFDDCD"
       id="stop4323" /><stop
       offset="1"
       style="stop-color:#F79A80"
       id="stop4325" /></linearGradient><path
     d="m 219.00857,44.794146 c 0,0 61.723,58.783004 180.271,19.594 0,0 -21.554,216.520004 -58.784,293.918004 0,0 -21.566,23.226 -43.328,29.226 -3.007,0.829 -6.047,-1.267 -6.544,-4.346 l -4.013,-24.88 c 0,0 -4.845,13.729 -12.336,26.521 -1.318,2.251 -4.04,3.252 -6.483,2.337 -10.654,-3.988 -39.778,-15.392 -61.392,-28.563 -4.424,-2.695 -6.023,-8.305 -3.65,-12.908 14.403,-27.934 57.653,-131.19 16.259,-300.899004 z"
     id="path4328"
     inkscape:connector-curvature="0"
     style="fill:url(#SVGID_2_)" /><path
     d="m 325.68857,77.764146 c 7.991,7.34 21.196,23.707004 19.499,50.862004 0,0 -1.614,99.778 -19.575,198.355 -2.859,15.694 -9.221,30.677 -19.434,42.932 -1.609,1.931 -3.349,3.854 -5.227,5.734 -1.593,1.596 -4.26,1.264 -5.334,-0.719 l -9.008,-16.624 4.013,24.879 c 0.497,3.079 3.537,5.175 6.544,4.347 21.762,-6 43.328,-29.226 43.328,-29.226 37.23,-77.397 58.784,-293.918004 58.784,-293.918004 -27.659,9.145 -52.181,12.91 -73.59,13.378 z"
     id="path4330"
     inkscape:connector-curvature="0"
     style="fill:#f79a80" /><path
     d="m 217.70257,114.68315 h -0.737 c -0.225,0 -0.449,0.018 -0.671,0.053 l -2.014,0.317 c 0.556,6.218 1.058,12.776 1.488,19.6 l 5.895,-14.006 c 1.193,-2.832 -0.887,-5.964 -3.961,-5.964 z"
     id="path4332"
     inkscape:connector-curvature="0"
     style="fill:#9c304d" /></svg>